<?xml version="1.0" encoding="UTF-8"?>
<svg width="30px" height="26px" viewBox="0 0 30 26" version="1.1" xmlns="http://www.w3.org/2000/svg" xmlns:xlink="http://www.w3.org/1999/xlink">
    <!-- Generator: Sketch 62 (91390) - https://sketch.com -->
    <title>Logo/Competitors/Vuejs</title>
    <desc>Created with Sketch.</desc>
    <g id="Homepage-v23-(27Jan20)" stroke="none" stroke-width="1" fill="none" fill-rule="evenodd">
        <g id="homepage-1921" transform="translate(-479.000000, -820.000000)">
            <g id="Section-#1-Hero" transform="translate(0.000000, 110.000000)">
                <g id="build-with" transform="translate(338.000000, 704.000000)">
                    <g id="Logo/Competitors/Vuejs" transform="translate(138.000000, 0.000000)">
                        <g id="Vuejs" transform="translate(3.000000, 6.000000)">
                            <polygon id="Fill-1" fill="#42B883" points="18.4005685 1.49122816e-05 14.9482843 5.85457632 11.496 1.49122816e-05 6.09137056e-05 1.49122816e-05 14.9482843 25.3538746 29.8963553 0.000313157896 29.8963553 1.49122816e-05"></polygon>
                            <polygon id="Fill-2" fill="#35495E" points="18.4005685 1.49122816e-05 14.9482843 5.85457632 11.496 1.49122816e-05 5.97858883 1.49122816e-05 14.9482843 15.2120325 23.9176751 1.49122816e-05"></polygon>
                        </g>
                    </g>
                </g>
            </g>
        </g>
    </g>
</svg>